{
    "status": "ACTIVE",
    "iconId": "c7878639-a50e-43e5-9c03-016d9b22addc",
    "baseAppId": "8e68ed94-802e-48a5-9299-919294fce984",
    "eventApplicationTranslations": [
        {
            "name": "Test data 1 en",
            "description": "description 1 en",
            "remarks": "remarks 1 en",
            "languageCode": "en"
        },
        {
            "name": "Test data 1 de",
            "description": "description 1 de",
            "remarks": "remarks 1 de",
            "languageCode": "de"
        }
    ]
}
