{
    "status": "ACTIVE",
    "iconId": "84e8bd76-679e-40ed-b0e2-d0dd2d36b089",
    "baseAppId": "348CB40B-22E9-4605-BA2E-90949D06E253",
    "isParent": "No",
    "position": "1",
    "projectApplicationTransulations": [
        {
            "name": "Test data 1 en",
            "description": "description 1 en",
            "remarks": "remarks 1 en",
            "languageCode": "en"
        },
        {
            "name": "Test data 1 de",
            "description": "description 1 de",
            "remarks": "remarks 1 de",
            "languageCode": "de"
        }
    ]
}
